configurable_sync_fifo_sim.vcd
$version Generated by VerilatedVcd $end
$timescale 1ps $end
 $scope module TOP $end
  $var wire 1 6 clk $end
  $var wire 1 7 rst_n $end
  $var wire 1 8 wr_en $end
  $var wire 1 9 rd_en $end
  $var wire 8 : data_in [7:0] $end
  $var wire 8 ; data_out [7:0] $end
  $var wire 1 < full $end
  $var wire 1 = empty $end
  $var wire 1 > almost_full $end
  $var wire 1 ? almost_empty $end
  $var wire 5 @ fill_level [4:0] $end
  $scope module configurable_sync_fifo $end
   $var wire 32 A DATA_WIDTH [31:0] $end
   $var wire 32 B DEPTH [31:0] $end
   $var wire 32 C ALMOST_FULL_THRESHOLD [31:0] $end
   $var wire 32 D ALMOST_EMPTY_THRESHOLD [31:0] $end
   $var wire 1 6 clk $end
   $var wire 1 7 rst_n $end
   $var wire 1 8 wr_en $end
   $var wire 1 9 rd_en $end
   $var wire 8 : data_in [7:0] $end
   $var wire 8 ; data_out [7:0] $end
   $var wire 1 < full $end
   $var wire 1 = empty $end
   $var wire 1 > almost_full $end
   $var wire 1 ? almost_empty $end
   $var wire 5 @ fill_level [4:0] $end
   $var wire 32 D ADDR_WIDTH [31:0] $end
   $var wire 8 # memory[0] [7:0] $end
   $var wire 8 $ memory[1] [7:0] $end
   $var wire 8 % memory[2] [7:0] $end
   $var wire 8 & memory[3] [7:0] $end
   $var wire 8 ' memory[4] [7:0] $end
   $var wire 8 ( memory[5] [7:0] $end
   $var wire 8 ) memory[6] [7:0] $end
   $var wire 8 * memory[7] [7:0] $end
   $var wire 8 + memory[8] [7:0] $end
   $var wire 8 , memory[9] [7:0] $end
   $var wire 8 - memory[10] [7:0] $end
   $var wire 8 . memory[11] [7:0] $end
   $var wire 8 / memory[12] [7:0] $end
   $var wire 8 0 memory[13] [7:0] $end
   $var wire 8 1 memory[14] [7:0] $end
   $var wire 8 2 memory[15] [7:0] $end
   $var wire 4 3 wr_ptr [3:0] $end
   $var wire 4 4 rd_ptr [3:0] $end
   $var wire 5 5 count [4:0] $end
  $upscope $end
 $upscope $end
$enddefinitions $end


#0
b00000000 #
b00000000 $
b00000000 %
b00000000 &
b00000000 '
b00000000 (
b00000000 )
b00000000 *
b00000000 +
b00000000 ,
b00000000 -
b00000000 .
b00000000 /
b00000000 0
b00000000 1
b00000000 2
b0000 3
b0000 4
b00000 5
06
07
08
09
b00000000 :
b00000000 ;
0<
1=
0>
1?
b00000 @
b00000000000000000000000000001000 A
b00000000000000000000000000010000 B
b00000000000000000000000000001100 C
b00000000000000000000000000000100 D
#1
16
#2
06
#3
16
#4
06
#5
16
#6
06
#7
16
#8
06
#9
16
#10
06
17
18
b00000001 :
#11
b00000001 #
b0001 3
b00001 5
16
0=
b00001 @
#12
06
b00000010 :
#13
b00000010 $
b0010 3
b00010 5
16
b00010 @
#14
06
b00000011 :
#15
b00000011 %
b0011 3
b00011 5
16
b00011 @
#16
06
b00000100 :
#17
b00000100 &
b0100 3
b00100 5
16
b00100 @
#18
06
b00000101 :
#19
b00000101 '
b0101 3
b00101 5
16
0?
b00101 @
#20
06
b00000110 :
#21
b00000110 (
b0110 3
b00110 5
16
b00110 @
#22
06
b00000111 :
#23
b00000111 )
b0111 3
b00111 5
16
b00111 @
#24
06
b00001000 :
#25
b00001000 *
b1000 3
b01000 5
16
b01000 @
#26
06
08
19
#27
b0001 4
b00111 5
16
b00000001 ;
b00111 @
#28
06
18
09
b00001001 :
#29
b00001001 +
b1001 3
b01000 5
16
b01000 @
#30
06
19
b00001010 :
#31
b00001010 ,
b1010 3
b0010 4
16
b00000010 ;
#32
06
08
09
#33
16
#34
06
18
19
b00001011 :
#35
b00001011 -
b1011 3
b0011 4
16
b00000011 ;
#36
06
09
b00001100 :
#37
b00001100 .
b1100 3
b01001 5
16
b01001 @
#38
06
08
19
#39
b0100 4
b01000 5
16
b00000100 ;
b01000 @
#40
06
18
09
b00001101 :
#41
b00001101 /
b1101 3
b01001 5
16
b01001 @
#42
06
19
b00001110 :
#43
b00001110 0
b1110 3
b0101 4
16
b00000101 ;
#44
06
08
09
#45
16
#46
06
18
19
b00001111 :
#47
b00001111 1
b1111 3
b0110 4
16
b00000110 ;
#48
06
09
b00010000 :
#49
b00010000 2
b0000 3
b01010 5
16
b01010 @
#50
06
08
19
#51
b0111 4
b01001 5
16
b00000111 ;
b01001 @
#52
06
18
09
b00010001 :
#53
b00010001 #
b0001 3
b01010 5
16
b01010 @
#54
06
19
b00010010 :
#55
b00010010 $
b0010 3
b1000 4
16
b00001000 ;
#56
06
08
09
#57
16
#58
06
18
19
b00010011 :
#59
b00010011 %
b0011 3
b1001 4
16
b00001001 ;
#60
06
09
b00010100 :
#61
b00010100 &
b0100 3
b01011 5
16
b01011 @
#62
06
08
19
#63
b1010 4
b01010 5
16
b00001010 ;
b01010 @
#64
06
18
09
b00010101 :
#65
b00010101 '
b0101 3
b01011 5
16
b01011 @
#66
06
19
b00010110 :
#67
b00010110 (
b0110 3
b1011 4
16
b00001011 ;
#68
06
08
09
#69
16
#70
06
18
19
b00010111 :
#71
b00010111 )
b0111 3
b1100 4
16
b00001100 ;
#72
06
09
b00011000 :
#73
b00011000 *
b1000 3
b01100 5
16
1>
b01100 @
#74
06
08
19
#75
b1101 4
b01011 5
16
b00001101 ;
0>
b01011 @
#76
06
09
#77
16
#78
06
19
#79
b1110 4
b01010 5
16
b00001110 ;
b01010 @
#80
06
09
#81
16
#82
06
19
#83
b1111 4
b01001 5
16
b00001111 ;
b01001 @
#84
06
09
#85
16
#86
06
19
#87
b0000 4
b01000 5
16
b00010000 ;
b01000 @
#88
06
09
#89
16
#90
06
19
#91
b0001 4
b00111 5
16
b00010001 ;
b00111 @
#92
06
09
#93
16
#94
06
19
#95
b0010 4
b00110 5
16
b00010010 ;
b00110 @
#96
06
09
#97
16
#98
06
19
#99
b0011 4
b00101 5
16
b00010011 ;
b00101 @
#100
06
09
#101
16
#102
06
19
#103
b0100 4
b00100 5
16
b00010100 ;
1?
b00100 @
#104
06
09
#105
16
#106
06
19
#107
b0101 4
b00011 5
16
b00010101 ;
b00011 @
#108
06
09
#109
16
#110
06
19
#111
b0110 4
b00010 5
16
b00010110 ;
b00010 @
#112
06
09
#113
16
#114
06
19
#115
b0111 4
b00001 5
16
b00010111 ;
b00001 @
#116
06
09
#117
16
#118
06
19
#119
b1000 4
b00000 5
16
b00011000 ;
1=
b00000 @
#120
06
09
