dual_clock_fifo_sim.vcd
$version Generated by VerilatedVcd $end
$timescale 1ps $end
 $scope module TOP $end
  $var wire 1 ; wr_clk $end
  $var wire 1 < wr_rst_n $end
  $var wire 1 = wr_en $end
  $var wire 8 > wr_data [7:0] $end
  $var wire 1 ? full $end
  $var wire 1 @ almost_full $end
  $var wire 1 A rd_clk $end
  $var wire 1 B rd_rst_n $end
  $var wire 1 C rd_en $end
  $var wire 8 D rd_data [7:0] $end
  $var wire 1 E empty $end
  $var wire 1 F almost_empty $end
  $var wire 5 G fifo_count [4:0] $end
  $scope module dual_clock_fifo $end
   $var wire 32 N DATA_WIDTH [31:0] $end
   $var wire 32 O ADDR_WIDTH [31:0] $end
   $var wire 32 P ALMOST_FULL_THRESHOLD [31:0] $end
   $var wire 32 O ALMOST_EMPTY_THRESHOLD [31:0] $end
   $var wire 1 ; wr_clk $end
   $var wire 1 < wr_rst_n $end
   $var wire 1 = wr_en $end
   $var wire 8 > wr_data [7:0] $end
   $var wire 1 ? full $end
   $var wire 1 @ almost_full $end
   $var wire 1 A rd_clk $end
   $var wire 1 B rd_rst_n $end
   $var wire 1 C rd_en $end
   $var wire 8 D rd_data [7:0] $end
   $var wire 1 E empty $end
   $var wire 1 F almost_empty $end
   $var wire 5 G fifo_count [4:0] $end
   $var wire 8 + mem[0] [7:0] $end
   $var wire 8 , mem[1] [7:0] $end
   $var wire 8 - mem[2] [7:0] $end
   $var wire 8 . mem[3] [7:0] $end
   $var wire 8 / mem[4] [7:0] $end
   $var wire 8 0 mem[5] [7:0] $end
   $var wire 8 1 mem[6] [7:0] $end
   $var wire 8 2 mem[7] [7:0] $end
   $var wire 8 3 mem[8] [7:0] $end
   $var wire 8 4 mem[9] [7:0] $end
   $var wire 8 5 mem[10] [7:0] $end
   $var wire 8 6 mem[11] [7:0] $end
   $var wire 8 7 mem[12] [7:0] $end
   $var wire 8 8 mem[13] [7:0] $end
   $var wire 8 9 mem[14] [7:0] $end
   $var wire 8 : mem[15] [7:0] $end
   $var wire 5 H wr_ptr_bin [4:0] $end
   $var wire 5 I rd_ptr_bin [4:0] $end
   $var wire 5 J wr_ptr_gray [4:0] $end
   $var wire 5 ' rd_ptr_gray [4:0] $end
   $var wire 5 ( wr_ptr_gray_rd_sync1 [4:0] $end
   $var wire 5 ) wr_ptr_gray_rd_sync2 [4:0] $end
   $var wire 5 $ rd_ptr_gray_wr_sync1 [4:0] $end
   $var wire 5 % rd_ptr_gray_wr_sync2 [4:0] $end
   $var wire 32 # gray_to_bin__Vstatic__i [31:0] $end
   $var wire 5 K gray_to_bin__Vstatic__bin [4:0] $end
   $var wire 8 L rd_data_reg [7:0] $end
   $var wire 5 * wr_ptr_bin_rd_sync [4:0] $end
   $var wire 5 & rd_ptr_bin_wr_sync [4:0] $end
   $var wire 5 M wr_count [4:0] $end
  $upscope $end
 $upscope $end
$enddefinitions $end


#0
b00000000000000000000000000000101 #
b00000 $
b00000 %
b00000 &
b00000 '
b00000 (
b00000 )
b00000 *
b00000000 +
b00000000 ,
b00000000 -
b00000000 .
b00000000 /
b00000000 0
b00000000 1
b00000000 2
b00000000 3
b00000000 4
b00000000 5
b00000000 6
b00000000 7
b00000000 8
b00000000 9
b00000000 :
0;
0<
0=
b00000000 >
0?
0@
0A
0B
0C
b00000000 D
1E
1F
b00000 G
b00000 H
b00000 I
b00000 J
b00000 K
b00000000 L
b00000 M
b00000000000000000000000000001000 N
b00000000000000000000000000000100 O
b00000000000000000000000000001100 P
#1
1;
#2
#3
1A
#4
0;
#5
1;
#6
0A
#7
1A
#8
0;
#9
1;
#10
0A
#11
1A
#12
0;
#13
1;
#14
0A
#15
1A
#16
0;
#17
1;
#18
0A
#19
1A
#20
0;
1<
1B
#21
1;
#22
0A
#23
1A
#24
0;
#25
1;
#26
0A
#27
1A
#28
0;
#29
1;
#30
0A
#31
1A
#32
0;
#33
1;
#34
0A
#35
1A
#36
0;
#37
1;
#38
0A
#39
1A
#40
0;
1=
b01001000 >
#41
b01001000 +
1;
b00001 H
b00001 J
b00001 M
#42
0A
#43
b00001 (
1A
#44
0;
b10011011 >
#45
b10011011 ,
1;
b00010 H
b00011 J
b00010 M
#46
0A
#47
b00011 (
b00001 )
b00001 *
1A
0E
b00001 G
b00001 K
#48
0;
b01110101 >
#49
b01110101 -
1;
b00011 H
b00010 J
b00000 K
b00011 M
#50
0A
#51
b00010 (
b00011 )
b00010 *
1A
b00010 G
b00010 K
#52
0;
b01111001 >
#53
b01111001 .
1;
1@
b00100 H
b00110 J
b00000 K
b00100 M
#54
0A
#55
b00110 (
b00010 )
b00011 *
1A
b00011 G
b00011 K
#56
0;
b00101000 >
#57
b00101000 /
1;
b00101 H
b00111 J
b00000 K
b00101 M
#58
0A
#59
b00111 (
b00110 )
b00100 *
1A
b00100 G
b00100 K
#60
0;
b11100011 >
#61
b11100011 0
1;
b00110 H
b00101 J
b00000 K
b00110 M
#62
0A
#63
b00101 (
b00111 )
b00101 *
1A
0F
b00101 G
b00101 K
#64
0;
b00011100 >
#65
b00011100 1
1;
b00111 H
b00100 J
b00000 K
b00111 M
#66
0A
#67
b00100 (
b00101 )
b00110 *
1A
b00110 G
b00110 K
#68
0;
b11100101 >
#69
b11100101 2
1;
b01000 H
b01100 J
b00000 K
b01000 M
#70
0A
#71
b01100 (
b00100 )
b00111 *
1A
b00111 G
b00111 K
#72
0;
b01111001 >
#73
b01111001 3
1;
b01001 H
b01101 J
b00000 K
b01001 M
#74
0A
#75
b01101 (
b01100 )
b01000 *
1A
b01000 G
b01000 K
#76
0;
b00000101 >
#77
b00000101 4
1;
b01010 H
b01111 J
b00000 K
b01010 M
#78
0A
#79
b01111 (
b01101 )
b01001 *
1A
b01001 G
b01001 K
#80
0;
b11010111 >
#81
b11010111 5
1;
b01011 H
b01110 J
b00000 K
b01011 M
#82
0A
#83
b01110 (
b01111 )
b01010 *
1A
b01010 G
b01010 K
#84
0;
b01101011 >
#85
b01101011 6
1;
b01100 H
b01010 J
b00000 K
b01100 M
#86
0A
#87
b01010 (
b01110 )
b01011 *
1A
b01011 G
b01011 K
#88
0;
b11110110 >
#89
b11110110 7
1;
b01101 H
b01011 J
b00000 K
b01101 M
#90
0A
#91
b01011 (
b01010 )
b01100 *
1A
b01100 G
b01100 K
#92
0;
b00111110 >
#93
b00111110 8
1;
b01110 H
b01001 J
b00000 K
b01110 M
#94
0A
#95
b01001 (
b01011 )
b01101 *
1A
b01101 G
b01101 K
#96
0;
b10111000 >
#97
b10111000 9
1;
b01111 H
b01000 J
b00000 K
b01111 M
#98
0A
#99
b01000 (
b01001 )
b01110 *
1A
b01110 G
b01110 K
#100
0;
b11101011 >
#101
b11101011 :
1;
b10000 H
b11000 J
b00000 K
b10000 M
#102
0A
#103
b11000 (
b01000 )
b01111 *
1A
b01111 G
b01111 K
#104
0=
0A
1C
#105
b00001 '
b11000 )
b10000 *
1A
b01001000 D
b00001 I
b10000 K
b01001000 L
#106
0;
#107
b00001 $
1;
b00000 K
#108
0A
#109
b00011 '
1A
b10011011 D
b01110 G
b00010 I
b10000 K
b10011011 L
#110
0;
#111
b00011 $
b00001 %
b00001 &
1;
b00001 K
b01111 M
#112
0A
#113
b00010 '
1A
b01110101 D
b01101 G
b00011 I
b10000 K
b01110101 L
#114
0;
#115
b00010 $
b00011 %
b00010 &
1;
b00010 K
b01110 M
#116
0A
#117
b00110 '
1A
b01111001 D
b01100 G
b00100 I
b10000 K
b01111001 L
#118
0;
#119
b00110 $
b00010 %
b00011 &
1;
b00011 K
b01101 M
#120
0A
#121
b00111 '
1A
b00101000 D
b01011 G
b00101 I
b10000 K
b00101000 L
#122
0;
#123
b00111 $
b00110 %
b00100 &
1;
b00100 K
b01100 M
#124
0A
#125
b00101 '
1A
b11100011 D
b01010 G
b00110 I
b10000 K
b11100011 L
#126
0;
#127
b00101 $
b00111 %
b00101 &
1;
b00101 K
b01011 M
#128
0A
#129
b00100 '
1A
b00011100 D
b01001 G
b00111 I
b10000 K
b00011100 L
#130
0;
#131
b00100 $
b00101 %
b00110 &
1;
b00110 K
b01010 M
#132
0A
#133
b01100 '
1A
b11100101 D
b01000 G
b01000 I
b10000 K
b11100101 L
#134
0;
#135
b01100 $
b00100 %
b00111 &
1;
b00111 K
b01001 M
#136
0A
#137
b01101 '
1A
b01111001 D
b00111 G
b01001 I
b10000 K
b01111001 L
#138
0;
#139
b01101 $
b01100 %
b01000 &
1;
b01000 K
b01000 M
#140
0A
#141
b01111 '
1A
b00000101 D
b00110 G
b01010 I
b10000 K
b00000101 L
#142
0;
#143
b01111 $
b01101 %
b01001 &
1;
b01001 K
b00111 M
#144
0A
#145
b01110 '
1A
b11010111 D
b00101 G
b01011 I
b10000 K
b11010111 L
#146
0;
#147
b01110 $
b01111 %
b01010 &
1;
b01010 K
b00110 M
#148
0A
#149
b01010 '
1A
b01101011 D
1F
b00100 G
b01100 I
b10000 K
b01101011 L
#150
0;
#151
b01010 $
b01110 %
b01011 &
1;
b01011 K
b00101 M
#152
0A
#153
b01011 '
1A
b11110110 D
b00011 G
b01101 I
b10000 K
b11110110 L
#154
0;
#155
b01011 $
b01010 %
b01100 &
1;
b01100 K
b00100 M
#156
0A
#157
b01001 '
1A
b00111110 D
b00010 G
b01110 I
b10000 K
b00111110 L
#158
0;
#159
b01001 $
b01011 %
b01101 &
1;
0@
b01101 K
b00011 M
#160
0A
#161
b01000 '
1A
b10111000 D
b00001 G
b01111 I
b10000 K
b10111000 L
#162
0;
#163
b01000 $
b01001 %
b01110 &
1;
b01110 K
b00010 M
#164
0A
#165
b11000 '
1A
b11101011 D
1E
b00000 G
b10000 I
b10000 K
b11101011 L
#166
0;
#167
b11000 $
b01000 %
b01111 &
1;
1?
1@
b01111 K
b00001 M
#168
b00000 $
b00000 %
b00000 &
b00000 '
b00000 (
b00000 )
b00000 *
0;
0<
0?
0@
0B
0C
b00000 H
b00000 I
b00000 J
b00000 K
b00000 M
#169
1;
#170
0A
#171
1A
#172
0;
#173
1;
#174
0A
#175
1A
#176
0;
#177
1;
#178
0A
#179
1A
#180
0;
#181
1;
#182
0A
#183
1A
#184
0;
#185
1;
#186
0A
#187
1A
#188
0;
1<
1B
#189
1;
#190
0A
#191
1A
#192
0;
#193
1;
#194
0A
#195
1A
#196
0;
#197
1;
#198
0A
#199
1A
#200
0;
#201
1;
#202
0A
#203
1A
#204
0;
#205
1;
#206
0A
#207
1A
#208
0;
1=
b11000011 >
#209
b11000011 +
1;
b00001 H
b00001 J
b00001 M
#210
0;
b10100111 >
#211
b10100111 ,
1;
b00010 H
b00011 J
b00010 M
#212
0;
b00011001 >
#213
b00011001 -
1;
b00011 H
b00010 J
b00011 M
#214
0;
b00011011 >
#215
b00011011 .
1;
1@
b00100 H
b00110 J
b00100 M
#216
0;
b00011101 >
#217
b00011101 /
1;
b00101 H
b00111 J
b00101 M
#218
0;
b10001000 >
#219
b10001000 0
1;
b00110 H
b00101 J
b00110 M
#220
0;
b00100000 >
#221
b00100000 1
1;
b00111 H
b00100 J
b00111 M
#222
0;
b00101000 >
#223
b00101000 2
1;
b01000 H
b01100 J
b01000 M
#224
0=
0A
#225
b01100 (
1A
#226
0;
#227
1;
#228
0A
#229
b01100 )
b01000 *
1A
0E
0F
b01000 G
b01000 K
#230
0;
#231
1;
b00000 K
#232
0A
#233
1A
b01000 K
#234
0;
#235
1;
b00000 K
#236
0A
#237
1A
b01000 K
#238
0;
#239
1;
b00000 K
#240
0A
#241
1A
b01000 K
#242
0;
#243
1;
b00000 K
#244
0A
1C
#245
b00001 '
1A
b11000011 D
b00111 G
b00001 I
b01000 K
b11000011 L
#246
0;
1=
b11110100 >
0C
#247
b00001 $
b11110100 3
1;
b01001 H
b01101 J
b00000 K
b01001 M
#248
0=
0A
1C
#249
b00011 '
b01101 (
1A
b10100111 D
b00110 G
b00010 I
b01000 K
b10100111 L
#250
0;
1=
b11101010 >
0C
#251
b00011 $
b00001 %
b00001 &
b11101010 4
1;
b01010 H
b01111 J
b00001 K
#252
0=
0A
1C
#253
b00010 '
b01111 (
b01101 )
b01001 *
1A
b00011001 D
b00011 I
b01001 K
b00011001 L
#254
0;
1=
b11110001 >
0C
#255
b00010 $
b00011 %
b00010 &
b11110001 5
1;
b01011 H
b01110 J
b00010 K
#256
0=
0A
1C
#257
b00110 '
b01110 (
b01111 )
b01010 *
1A
b00011011 D
b00100 I
b01010 K
b00011011 L
#258
0;
1=
b10011101 >
0C
#259
b00110 $
b00010 %
b00011 &
b10011101 6
1;
b01100 H
b01010 J
b00011 K
#260
0=
0A
1C
#261
b00111 '
b01010 (
b01110 )
b01011 *
1A
b00011101 D
b00101 I
b01011 K
b00011101 L
#262
0;
1=
b10110010 >
0C
#263
b00111 $
b00110 %
b00100 &
b10110010 7
1;
b01101 H
b01011 J
b00100 K
#264
0=
0A
1C
#265
b00101 '
b01011 (
b01010 )
b01100 *
1A
b10001000 D
b00110 I
b01100 K
b10001000 L
#266
0;
1=
b01111111 >
0C
#267
b00101 $
b00111 %
b00101 &
b01111111 8
1;
b01110 H
b01001 J
b00101 K
#268
0=
0A
1C
#269
b00100 '
b01001 (
b01011 )
b01101 *
1A
b00100000 D
b00111 I
b01101 K
b00100000 L
#270
0;
1=
b10000010 >
0C
#271
b00100 $
b00101 %
b00110 &
b10000010 9
1;
b01111 H
b01000 J
b00110 K
#272
0=
0A
1C
#273
b01100 '
b01000 (
b01001 )
b01110 *
1A
b00101000 D
b01000 I
b01110 K
b00101000 L
#274
0;
1=
b11011001 >
0C
#275
b01100 $
b00100 %
b00111 &
b11011001 :
1;
b10000 H
b11000 J
b00111 K
#276
0=
0A
1C
#277
b01101 '
b11000 (
b01000 )
b01111 *
1A
b11110100 D
b01001 I
b01111 K
b11110100 L
#278
0;
1=
b01100111 >
0C
#279
b01101 $
b01100 %
b01000 &
b01100111 +
1;
b10001 H
b11001 J
b01000 K
#280
0=
0A
1C
#281
b01111 '
b11001 (
b11000 )
b10000 *
1A
b11101010 D
b01010 I
b10000 K
b11101010 L
#282
0;
1=
b11000101 >
0C
#283
b01111 $
b01101 %
b01001 &
b11000101 ,
1;
b10010 H
b11011 J
b01001 K
